\relax 
\ifx\hyper@anchor\@undefined
\global \let \oldcontentsline\contentsline
\gdef \contentsline#1#2#3#4{\oldcontentsline{#1}{#2}{#3}}
\global \let \oldnewlabel\newlabel
\gdef \newlabel#1#2{\newlabelxx{#1}#2}
\gdef \newlabelxx#1#2#3#4#5#6{\oldnewlabel{#1}{{#2}{#3}}}
\AtEndDocument{\let \contentsline\oldcontentsline
\let \newlabel\oldnewlabel}
\else
\global \let \hyper@last\relax 
\fi

\@writefile{toc}{\contentsline {section}{\numberline {1}Introduction}{1}{section.1}}
\@writefile{toc}{\contentsline {section}{\numberline {2}Motor Control}{1}{section.2}}
\@writefile{toc}{\contentsline {subsection}{\numberline {2.1}Limit Switchs}{1}{subsection.2.1}}
\@writefile{toc}{\contentsline {subsection}{\numberline {2.2}Phidget Accelerometer/Magnetometer}{1}{subsection.2.2}}
\@writefile{toc}{\contentsline {section}{\numberline {3}MIDAS front-end Programs}{1}{section.3}}
\@writefile{toc}{\contentsline {subsection}{\numberline {3.1}feMotor}{2}{subsection.3.1}}
\@writefile{toc}{\contentsline {subsection}{\numberline {3.2}feMotor}{2}{subsection.3.2}}
\@writefile{toc}{\contentsline {subsection}{\numberline {3.3}feScan}{3}{subsection.3.3}}
\@writefile{toc}{\contentsline {section}{\numberline {4}Instruction Checklist}{3}{section.4}}
\@writefile{toc}{\contentsline {section}{\numberline {5}List of Known Problems and Needed Improvements}{4}{section.5}}
